…
neighbourhoods <- list_package_resources("https://open.toronto.ca/dataset/neighbourhoods/") %>%
  get_resource()

neighbourhoods
#> Simple feature collection with 140 features and 17 fields
#> Geometry type: POLYGON
#> Dimension:     XY
#> Bounding box:  xmin: -79.63926 ymin: 43.581 xmax: -79.11527 ymax: 43.85546
#> Geodetic CRS:  WGS 84
#> # A tibble: 140 x 18
#>    `_id` AREA_ID AREA_ATTR_ID PARENT_AREA_ID AREA_SHORT_CODE AREA_LONG_CODE
#>    <int>   <int>        <int> <lgl>          <chr>           <chr>         
#>  1 11481 2480141     26005521 NA             096             096           
#>  2 11482 2480140     26005520 NA             095             095           
#>  3 11483 2480139     26005519 NA             109             109           
#>  4 11484 2480064     26005444 NA             064             064           
#>  5 11485 2480063     26005443 NA             103             103           
#>  6 11486 2480062     26005442 NA             130             130           
#>  7 11487 2480138     26005518 NA             053             053           
#>  8 11488 2480137     26005517 NA             026             026           
#>  9 11489 2480136     26005516 NA             006             006           
#> 10 11490 2480135     26005515 NA             124             124           
#> # … with 130 more rows, and 12 more variables: AREA_NAME <chr>,
#> #   AREA_DESC <chr>, X <lgl>, Y <lgl>, LONGITUDE <lgl>, LATITUDE <lgl>,
#> #   OBJECTID <int>, Shape__Area <dbl>, Shape__Length <dbl>,
#> #   geometry <POLYGON [°]>, CLASSIFICATION <chr>, CLASSIFICATION_CODE <chr>

neighbourhoods %>%
  mutate(neighbourhood = clean_neighbourhood_names(AREA_NAME)) %>%
  select(AREA_NAME, neighbourhood)
#> Simple feature collection with 140 features and 2 fields
#> Geometry type: POLYGON
#> Dimension:     XY
#> Bounding box:  xmin: -79.63926 ymin: 43.581 xmax: -79.11527 ymax: 43.85546
#> Geodetic CRS:  WGS 84
#> # A tibble: 140 x 3
#>    AREA_NAME         neighbourhood                                      geometry
#>    <chr>             <chr>                                         <POLYGON [°]>
#>  1 Casa Loma (96)    Casa Loma          ((-79.41469 43.67391, -79.41485 43.6743…
#>  2 Annex (95)        Annex              ((-79.39414 43.66872, -79.39588 43.6683…
#>  3 Caledonia-Fairba… Caledonia-Fairbank ((-79.46021 43.68156, -79.46044 43.6819…
#>  4 Woodbine Corrido… Woodbine Corridor  ((-79.31485 43.66674, -79.3166 43.66636…
#>  5 Lawrence Park So… Lawrence Park Sou… ((-79.41096 43.70408, -79.41165 43.7039…
#>  6 Milliken (130)    Milliken           ((-79.24308 43.81297, -79.24433 43.8127…
#>  7 Henry Farm (53)   Henry Farm         ((-79.35966 43.76649, -79.35966 43.7665…
#>  8 Downsview-Roding… Downsview-Roding-… ((-79.50783 43.71776, -79.50854 43.7176…
#>  9 Kingsview Villag… Kingsview Village… ((-79.55236 43.70947, -79.55229 43.7095…
#> 10 Kennedy Park (12… Kennedy Park       ((-79.24549 43.7306, -79.24555 43.73055…
#> # … with 130 more rows
```
…
#### neighbourhoods

neighbourhoods contains the 140 social planning neighbourhoods in
Toronto and their boundaries. Once the [new 158
neighbourhoods](https://www.toronto.ca/city-government/data-research-maps/neighbourhoods-communities/neighbourhood-profiles/)
are released by the City of Toronto, this data set will be updated.

``` r
neighbourhoods
#> Simple feature collection with 140 features and 17 fields
#> Geometry type: POLYGON
#> Dimension:     XY
#> Bounding box:  xmin: -79.63926 ymin: 43.581 xmax: -79.11527 ymax: 43.85546
#> Geodetic CRS:  WGS 84
#> # A tibble: 140 x 18
#>    `_id` AREA_ID AREA_ATTR_ID PARENT_AREA_ID AREA_SHORT_CODE AREA_LONG_CODE
#>    <int>   <int>        <int> <lgl>          <chr>           <chr>         
#>  1 11481 2480141     26005521 NA             096             096           
#>  2 11482 2480140     26005520 NA             095             095           
#>  3 11483 2480139     26005519 NA             109             109           
#>  4 11484 2480064     26005444 NA             064             064           
#>  5 11485 2480063     26005443 NA             103             103           
#>  6 11486 2480062     26005442 NA             130             130           
#>  7 11487 2480138     26005518 NA             053             053           
#>  8 11488 2480137     26005517 NA             026             026           
#>  9 11489 2480136     26005516 NA             006             006           
#> 10 11490 2480135     26005515 NA             124             124           
#> # … with 130 more rows, and 12 more variables: AREA_NAME <chr>,
#> #   AREA_DESC <chr>, X <lgl>, Y <lgl>, LONGITUDE <lgl>, LATITUDE <lgl>,
#> #   OBJECTID <int>, Shape__Area <dbl>, Shape__Length <dbl>,
#> #   geometry <POLYGON [°]>, CLASSIFICATION <chr>, CLASSIFICATION_CODE <chr>
…
#### apartment\_building\_registry

apartment\_building\_registry is a geocoded version of the City of
Toronto’s [Apartment Building Registration
Dataset](https://open.toronto.ca/dataset/apartment-building-registration/),
with cleaned addresses and latitude and longitude:

``` r
apartment_building_registry
#> Simple feature collection with 3479 features and 74 fields
#> Geometry type: POINT
#> Dimension:     XY
#> Bounding box:  xmin: -79.61487 ymin: 43.58818 xmax: -79.14976 ymax: 43.81408
#> Geodetic CRS:  WGS 84
#> # A tibble: 3,479 x 75
#>       id bing_address           bing_municipality bing_postal_code bing_latitude
#>  * <dbl> <chr>                  <chr>             <chr>                    <dbl>
#>  1 62272 3725 Dundas St W       Toronto           M6S 2T5                   43.7
#>  2 65726 12 Thorncliffe Park Dr Toronto           M4H 1N8                   43.7
#>  3 62273 2743 Victoria Park Ave <NA>              M1T                       43.8
#>  4 62274 5 Stag Hill Dr         Toronto           M4B 1K7                   43.7
#>  5 62275 1085 Steeles Ave W     <NA>              M2R 2T1                   43.8
#>  6 62276 15 Forty Third St      <NA>              M8W 3P7                   43.6
#>  7 65727 595 Brookdale Ave      Toronto           M5M 1S5                   43.7
#>  8 65728 211 Wilson Ave         Toronto           M5M 3A9                   43.7
#>  9 65729 193 Wilson Ave         Toronto           M5M 4M8                   43.7
#> 10 62277 33 Rosehill Ave        Toronto           M4T 1G4                   43.7
#> # … with 3,469 more rows, and 70 more variables: bing_longitude <dbl>,
#> #   air_conditioning_type <chr>, amenities_available <chr>,
#> #   annual_fire_alarm_test_records <chr>,
#> #   annual_fire_pump_flow_test_records <chr>, approved_fire_safety_plan <chr>,
#> #   balconies <chr>, barrier_free_accessibilty_entr <chr>, bike_parking <chr>,
#> #   confirmed_storeys <dbl>, confirmed_units <dbl>,
#> #   date_of_last_inspection_by_tssa <chr>,
#> #   description_of_child_play_area <chr>,
#> #   description_of_indoor_exercise_room <chr>,
…
